<svg width="36" height="33" viewBox="0 0 36 33" fill="none" xmlns="http://www.w3.org/2000/svg">
<path d="M2.56425 28.209H33.4327" stroke="white" stroke-width="1.61194" stroke-linecap="round" stroke-linejoin="round"/>
<path d="M2.56425 18.8066H5.24847" stroke="white" stroke-width="1.61194" stroke-linecap="round" stroke-linejoin="round"/>
<path d="M6.89102 8.35791L8.78876 10.2573" stroke="white" stroke-width="1.61194" stroke-linecap="round" stroke-linejoin="round"/>
<path d="M17.3304 4.02979V6.71635" stroke="white" stroke-width="1.61194" stroke-linecap="round" stroke-linejoin="round"/>
<path d="M27.7672 8.35791L25.8694 10.2573" stroke="white" stroke-width="1.61194" stroke-linecap="round" stroke-linejoin="round"/>
<path d="M32.0933 18.8066H29.4091" stroke="white" stroke-width="1.61194" stroke-linecap="round" stroke-linejoin="round"/>
<path d="M23.8772 25.523C25.2177 24.2189 26.139 22.5441 26.5232 20.7129C26.9075 18.8818 26.7371 16.9775 26.034 15.2438C25.3308 13.5101 24.1269 12.0258 22.5762 10.9807C21.0255 9.93567 19.1985 9.37744 17.3291 9.37744C15.4596 9.37744 13.6326 9.93567 12.0819 10.9807C10.5312 12.0258 9.32729 13.5101 8.62415 15.2438C7.92102 16.9775 7.75065 18.8818 8.13486 20.7129C8.51907 22.5441 9.44038 24.2189 10.7809 25.523" stroke="white" stroke-width="1.61194" stroke-linecap="round" stroke-linejoin="round"/>
</svg>
