<svg width="30" height="30" viewBox="0 0 30 30" fill="none" xmlns="http://www.w3.org/2000/svg">
<g clip-path="url(#clip0)">
<path d="M26.7499 21.5C26.6923 21.7821 26.5391 22.0357 26.3161 22.2179C26.0932 22.4001 25.8141 22.4998 25.5262 22.5H7.44993C7.26466 22.4999 7.08173 22.4585 6.9144 22.379C6.74706 22.2995 6.59949 22.1837 6.48237 22.0402C6.36525 21.8966 6.2815 21.7288 6.2372 21.5489C6.19289 21.369 6.18913 21.1815 6.22618 21L8.82993 8.5C8.88752 8.21787 9.04075 7.96427 9.26372 7.78207C9.4867 7.59987 9.76573 7.50023 10.0537 7.5H28.1249C28.3102 7.50015 28.4931 7.54148 28.6605 7.621C28.8278 7.70053 28.9754 7.81626 29.0925 7.95982C29.2096 8.10338 29.2934 8.27117 29.3377 8.45107C29.382 8.63097 29.3857 8.81847 29.3487 9L26.7499 21.5Z" stroke="#FE0002" stroke-width="1.5" stroke-linecap="round" stroke-linejoin="round"/>
<path d="M9.28345 7.76489L15.6797 14.6536C16.0906 15.096 16.6476 15.3748 17.248 15.4384C17.8484 15.5021 18.4515 15.3463 18.9459 14.9999L29.0647 7.91739" stroke="#FE0002" stroke-width="1.5" stroke-linecap="round" stroke-linejoin="round"/>
<path d="M0.625244 8.75012H5.62524" stroke="#FE0002" stroke-width="1.5" stroke-linecap="round" stroke-linejoin="round"/>
<path d="M0.625244 12.5001H4.37524" stroke="#FE0002" stroke-width="1.5" stroke-linecap="round" stroke-linejoin="round"/>
<path d="M0.625244 16.2501H3.12524" stroke="#FE0002" stroke-width="1.5" stroke-linecap="round" stroke-linejoin="round"/>
</g>
<defs>
<clipPath id="clip0">
<rect width="30" height="30" fill="white"/>
</clipPath>
</defs>
</svg>
