<svg width="38" height="33" viewBox="0 0 38 33" fill="none" xmlns="http://www.w3.org/2000/svg">
<g clip-path="url(#clip0)">
<path d="M19.2191 11.9617C19.1415 11.9334 19.0554 11.9271 18.9733 11.9435C18.8912 11.96 18.8173 11.9984 18.7621 12.0533C18.7069 12.1082 18.6734 12.1768 18.6662 12.2492C18.6591 12.3215 18.6788 12.394 18.7224 12.4561C19.2222 13.2959 19.4739 14.2289 19.4552 15.1725C19.4365 16.1161 19.148 17.0412 18.6152 17.8658C18.1109 17.9066 17.6055 17.7992 17.1812 17.5609C16.7568 17.3227 16.4387 16.9677 16.2785 16.5538C16.2603 16.5086 16.2309 16.4674 16.1923 16.433C16.1538 16.3986 16.1069 16.3719 16.0552 16.3547C16.0034 16.3375 15.9478 16.3302 15.8924 16.3334C15.8371 16.3366 15.7831 16.3502 15.7345 16.3731C14.9658 16.8541 14.3549 17.4983 13.9611 18.2431C13.5674 18.9879 13.4042 19.8078 13.4876 20.623C13.5487 21.9475 14.2115 23.1984 15.3332 24.106C16.4549 25.0135 17.9456 25.5052 19.4841 25.4749C21.0227 25.4446 22.4858 24.8948 23.5582 23.9441C24.6306 22.9933 25.2263 21.7177 25.2171 20.3921C25.407 18.6176 24.9255 16.8377 23.8445 15.3183C22.7634 13.7989 21.1409 12.6215 19.2191 11.9617V11.9617Z" stroke="white" stroke-width="1.61361" stroke-linecap="round" stroke-linejoin="round"/>
<path d="M8.67481 31.9232L29.1712 26.4863" stroke="white" stroke-width="1.61361" stroke-linecap="round" stroke-linejoin="round"/>
<path d="M14.1943 27.9533L8.674 26.4905" stroke="white" stroke-width="1.61361" stroke-linecap="round" stroke-linejoin="round"/>
<path d="M29.173 31.9191L23.659 30.459" stroke="white" stroke-width="1.61361" stroke-linecap="round" stroke-linejoin="round"/>
<path d="M12.2578 4.75903L2.71837 4.76018" stroke="white" stroke-width="1.61361" stroke-linecap="round" stroke-linejoin="round"/>
<path d="M0.788879 23.0975L3.14772 0.685791" stroke="white" stroke-width="1.61361" stroke-linecap="round" stroke-linejoin="round"/>
<path d="M25.5735 4.75481L35.113 4.75366" stroke="white" stroke-width="1.61361" stroke-linecap="round" stroke-linejoin="round"/>
<path d="M37.0541 23.0895L34.6827 0.679199" stroke="white" stroke-width="1.61361" stroke-linecap="round" stroke-linejoin="round"/>
<path d="M14.9794 8.82841C14.143 8.82841 13.3409 8.54222 12.7495 8.0328C12.1581 7.52337 11.8258 6.83244 11.8258 6.11201C11.8284 5.63385 11.9792 5.16497 12.2626 4.75381C11.9787 4.34275 11.8274 3.87388 11.8242 3.3956C11.8242 2.67517 12.1565 1.98424 12.7479 1.47482C13.3393 0.965391 14.1414 0.679199 14.9778 0.679199C16.254 1.04718 17.5789 1.27535 18.9213 1.3583C19.9967 1.35901 21.0657 1.21653 22.0906 0.935899C22.541 0.809155 23.0199 0.776247 23.4879 0.839877C23.956 0.903507 24.3998 1.06186 24.783 1.30193C25.1662 1.54201 25.4778 1.85695 25.6923 2.22091C25.9068 2.58487 26.0179 2.98745 26.0167 3.3956C26.0143 3.87379 25.8635 4.34272 25.5799 4.75381C25.8627 5.16484 26.0138 5.63317 26.0176 6.11095C26.0215 6.58873 25.878 7.05883 25.6019 7.47321C25.3258 7.88759 24.9269 8.23139 24.446 8.46949C23.9651 8.70759 23.4194 8.83145 22.8648 8.82841" stroke="white" stroke-width="1.61361" stroke-linecap="round" stroke-linejoin="round"/>
</g>
<defs>
<clipPath id="clip0">
<rect width="37.8423" height="32.5969" fill="white"/>
</clipPath>
</defs>
</svg>
