<svg width="90" height="90" viewBox="0 0 90 90" fill="none" xmlns="http://www.w3.org/2000/svg">
<path opacity="0.4" d="M45 1.40625C20.918 1.40625 1.40625 20.918 1.40625 45C1.40625 69.082 20.918 88.5938 45 88.5938C69.082 88.5938 88.5938 69.082 88.5938 45C88.5938 20.918 69.082 1.40625 45 1.40625ZM65.3379 49.2188L34.4004 66.9727C31.623 68.5195 28.125 66.5332 28.125 63.2812V26.7188C28.125 23.4844 31.6055 21.4805 34.4004 23.0273L65.3379 41.8359C68.2207 43.4531 68.2207 47.6191 65.3379 49.2188Z" fill="white"/>
<path d="M65.3379 49.2188L34.4004 66.9727C31.623 68.5196 28.125 66.5332 28.125 63.2813V26.7188C28.125 23.4844 31.6055 21.4805 34.4004 23.0274L65.3379 41.836C68.2207 43.4532 68.2207 47.6192 65.3379 49.2188Z" fill="white"/>
</svg>
