<!-- Generated by IcoMoon.io -->
<svg version="1.1" xmlns="http://www.w3.org/2000/svg" width="512" height="512" viewBox="0 0 512 512">
<title></title>
<g id="icomoon-ignore">
</g>
<path d="M77.435 145.008c-11.848-10.22-29.739-8.9-39.959 2.948s-8.901 29.738 2.948 39.959l37.011-42.907zM256 336.454l-18.506 21.454 18.506 15.962 18.505-15.962-18.506-21.454zM471.576 187.916c11.849-10.22 13.168-28.111 2.948-39.959s-28.111-13.168-39.959-2.948l37.011 42.907zM40.424 187.916l197.071 169.993 37.011-42.907-197.071-169.992-37.011 42.907zM274.505 357.908l197.071-169.993-37.011-42.907-197.071 169.992 37.011 42.907z"></path>
</svg>
