<!-- Generated by IcoMoon.io -->
<svg version="1.1" xmlns="http://www.w3.org/2000/svg" width="512" height="512" viewBox="0 0 512 512">
<title></title>
<g id="icomoon-ignore">
</g>
<path fill="none" stroke-linejoin="round" stroke-linecap="round" stroke-miterlimit="4" stroke-width="25.92" stroke="#000" d="M20.445 440.348h471.111"></path>
<path fill="none" stroke-linejoin="round" stroke-linecap="round" stroke-miterlimit="4" stroke-width="25.92" stroke="#000" d="M20.445 296.976h40.966"></path>
<path fill="none" stroke-linejoin="round" stroke-linecap="round" stroke-miterlimit="4" stroke-width="25.92" stroke="#000" d="M86.468 137.649l28.962 28.963"></path>
<path fill="none" stroke-linejoin="round" stroke-linecap="round" stroke-miterlimit="4" stroke-width="25.92" stroke="#000" d="M245.796 71.653v40.966"></path>
<path fill="none" stroke-linejoin="round" stroke-linecap="round" stroke-miterlimit="4" stroke-width="25.92" stroke="#000" d="M405.084 137.649l-28.964 28.963"></path>
<path fill="none" stroke-linejoin="round" stroke-linecap="round" stroke-miterlimit="4" stroke-width="25.92" stroke="#000" d="M471.111 296.976h-40.967"></path>
<path fill="none" stroke-linejoin="round" stroke-linecap="round" stroke-miterlimit="4" stroke-width="25.92" stroke="#000" d="M345.714 399.389c20.459-19.887 34.519-45.423 40.383-73.346s3.265-56.96-7.466-83.397c-10.731-26.436-29.106-49.070-52.774-65.005-23.666-15.935-51.548-24.447-80.079-24.447s-56.414 8.512-80.082 24.447c-23.666 15.935-42.041 38.57-52.773 65.005s-13.331 55.474-7.468 83.397c5.864 27.923 19.924 53.459 40.383 73.346"></path>
</svg>
