<!-- Generated by IcoMoon.io -->
<svg version="1.1" xmlns="http://www.w3.org/2000/svg" width="512" height="512" viewBox="0 0 512 512">
<title></title>
<g id="icomoon-ignore">
</g>
<path d="M232.023 18.959c-4.7-2.524-10.077-3.469-15.347-2.697s-10.157 3.224-13.947 6.994c-3.791 3.77-6.286 8.663-7.121 13.962s0.031 10.731 2.476 15.499c14.506 28.636 22.132 60.305 22.264 92.457s-7.234 63.882-21.506 92.638c-0.437 0.785-1.075 1.436-1.848 1.886s-1.651 0.682-2.544 0.672c-0.893-0.011-1.766-0.262-2.528-0.73s-1.386-1.133-1.804-1.928c-5.27-9.893-9.039-20.527-11.18-31.547-0.518-2.533-1.671-4.891-3.349-6.849s-3.823-3.451-6.235-4.338c-2.41-0.889-5.006-1.137-7.54-0.717s-4.915 1.491-6.915 3.112c-27.942 22.452-48.287 53.084-58.231 87.676s-8.997 71.439 2.709 105.464c11.052 32.031 32.093 59.597 59.978 78.576 27.886 18.982 61.118 28.357 94.729 26.728 84.431 0 143.467-43.156 162.034-118.34 27.531-110.996-40.029-281.584-184.095-358.519zM326.596 378.645c-2.402 16.639-10.953 31.748-23.94 42.301-12.987 10.556-29.452 15.774-46.096 14.614-15.979 0.007-31.451-5.656-43.699-15.999s-20.492-24.698-23.283-40.554c-0.292-1.642-0.175-3.332 0.341-4.917s1.417-3.016 2.619-4.163c1.202-1.147 2.668-1.976 4.267-2.41s3.28-0.461 4.892-0.077c10.007-0.159 19.815-2.839 28.533-7.793s16.067-12.027 21.379-20.575c6.085-6.491 10.177-14.617 11.782-23.399s0.654-17.844-2.738-26.094c-1.001-1.797-1.429-3.861-1.227-5.912s1.024-3.99 2.354-5.555c1.331-1.565 3.106-2.68 5.087-3.195s4.070-0.404 5.985 0.317c19.096 8.757 34.75 23.681 44.485 42.411s12.993 40.195 9.261 61.001z"></path>
</svg>
