<!-- Generated by IcoMoon.io -->
<svg version="1.1" xmlns="http://www.w3.org/2000/svg" width="512" height="512" viewBox="0 0 512 512">
<title></title>
<g id="icomoon-ignore">
</g>
<path d="M406 316h-90c-16.5 0-30-13.5-30-30s13.5-30 30-30h90c0 0 90-100.313 90-150s-40.312-90-90-90c-49.688 0-90 40.313-90 90 0 23.906 20.813 59.438 42.469 90h-42.469c-49.594 0-90 40.406-90 90s40.406 90 90 90h90c16.5 0 30 13.5 30 30s-13.5 30-30 30h-216.094c-15 23.252-31.688 44.72-44.344 60h260.438c49.592 0 90-40.408 90-90 0-49.594-40.408-90-90-90zM406 76c16.592 0 30 13.406 30 30s-13.408 30-30 30c-16.594 0-30-13.406-30-30s13.406-30 30-30zM106 256c-49.688 0-90 40.313-90 90s90 150 90 150c0 0 90-100.313 90-150s-40.313-90-90-90zM106 376c-16.594 0-30-13.406-30-30s13.406-30 30-30c16.594 0 30 13.406 30 30s-13.406 30-30 30z"></path>
</svg>
